<svg width="18" height="20" viewBox="0 0 18 20" fill="none" xmlns="http://www.w3.org/2000/svg">
<path fill-rule="evenodd" clip-rule="evenodd" d="M16.2 5.45455H7.2V10.9091H5.4V3.63636H10.8V0H3.6V5.45455H1.8C0.81 5.45455 0 6.27273 0 7.27273V18.1818C0 19.1818 0.81 20 1.8 20H16.2C17.19 20 18 19.1818 18 18.1818V7.27273C18 6.27273 17.19 5.45455 16.2 5.45455Z" fill="#B4B4B4"/>
</svg>
